^C:\USERS\ANDREW_975\GOOGLE ДИСК\@4TERM\OS\_4TERM\LAB8\LAB8\DEBUG\LAB8.OBJ|C:\USERS\ANDREW_975\GOOGLE ДИСК\@4TERM\OS\_4TERM\LAB8\LAB8\DEBUG\STDAFX.OBJ
C:\USERS\ANDREW_975\GOOGLE Диск\@4TERM\OS\_4TERM\LAB8\DEBUG\LAB8.ILK
C:\USERS\ANDREW_975\GOOGLE Диск\@4TERM\OS\_4TERM\LAB8\DEBUG\LAB8.EXE
C:\USERS\ANDREW_975\GOOGLE ДИСК\@4TERM\OS\_4TERM\LAB8\DEBUG\LAB8.PDB
