^C:\USERS\ANDREW_975\GOOGLE ДИСК\@4TERM\OS\_4TERM\LAB8\PROGRAM_1\DEBUG\PROGRAM_1.OBJ|C:\USERS\ANDREW_975\GOOGLE ДИСК\@4TERM\OS\_4TERM\LAB8\PROGRAM_1\DEBUG\STDAFX.OBJ
C:\USERS\ANDREW_975\GOOGLE Диск\@4TERM\OS\_4TERM\LAB8\DEBUG\PROGRAM_1.ILK
C:\USERS\ANDREW_975\GOOGLE Диск\@4TERM\OS\_4TERM\LAB8\DEBUG\PROGRAM_1.EXE
C:\USERS\ANDREW_975\GOOGLE ДИСК\@4TERM\OS\_4TERM\LAB8\DEBUG\PROGRAM_1.PDB
